{
    "content_max_width": "",
    "post_sidebar_id": "",
    "post_sidebar_position": "no_sidebar",
    "google_map_api_key": "AIzaSyDRiOJcH5jlSFqsAFGOgkGLZ02XvQSMTHo",
    "promo_popup": true,
    "promo_popup_title": "Sign up for the Latest news, Trends & Exclusive Offers!",
    "promo_popup_image": 2937,
    "enable_preloader": "",
    "header_style": "1",
    "logo": 1826,
    "header_hot_title": "Now shipping to Canada.",
    "header_show_woo": true,
    "iconbox_icon_1": "",
    "iconbox_icon_1_title": "",
    "iconbox_icon_1_sub_title": "",
    "iconbox_icon_2": "",
    "iconbox_icon_2_title": "",
    "iconbox_icon_2_sub_title": "",
    "header_categories": "[{\"name\":\"Accessories & supplies\",\"value\":244},{\"name\":\"Computers & Accessories\",\"value\":243},{\"name\":\"Cameras & Photos\",\"value\":253},{\"name\":\"Mobiles & Tablets\",\"value\":210},{\"name\":\"Tvs & Audio\",\"value\":236},{\"name\":\"Game consoles & Video games\",\"value\":231},{\"name\":\"Gadgets\",\"value\":237},{\"name\":\"Tools & storage\",\"value\":234},{\"name\":\"Watches\",\"value\":337}]",
    "header_socials": "{\"twitter\":\"https:\/\/twitter.com\/\",\"instagram\":\"https:\/\/www.instagram.com\/\",\"facebook-f\":\"https:\/\/www.facebook.com\/\"}",
    "shop_feature_icon_1": "lnricons-pencil2",
    "shop_feature_title_1": "",
    "shop_feature_icon_2": "",
    "shop_feature_title_2": "",
    "shop_feature_icon_3": "",
    "shop_feature_title_3": "",
    "shop_feature_icon_4": "",
    "shop_feature_title_4": "",
    "shop_feature_icon_5": "",
    "shop_feature_title_5": "",
    "show_title": "",
    "primary_color": "rgba(41,46,56,1)",
    "secondary_color": "rgba(89,91,212,1)",
    "third_color": "rgba(89,91,212,1)",
    "page_color": "rgba(247,248,249,1)",
    "body": "{\"selectors\":\"body, .normal-font\",\"font-family\":\"Open Sans\",\"color\":\"rgba(68,68,68,1)\",\"font-size\":\"16px\",\"line-height\":\"26px\",\"font-weight\":\"\",\"letter-spacing\":\"\"}",
    "default_header_font_family": "Heebo",
    "default_header_font_color": "rgba(41,46,56,1)",
    "h1, .h1": "{\"font-size\":\"60px\",\"line-height\":\"70px\",\"font-family\":\"\",\"font-weight\":\"700\"}",
    "h2, .h2": "{\"font-size\":\"50px\",\"line-height\":\"60px\",\"font-weight\":\"700\",\"letter-spacing\":\"0.15px\"}",
    "h3, .h3": "{\"font-size\":\"35px\",\"line-height\":\"40px\",\"font-weight\":\"700\",\"letter-spacing\":\"0.15px\",\"font-family\":\"\",\"color\":\"\"}",
    "h4, .h4": "{\"font-size\":\"25px\",\"line-height\":\"30px\",\"font-weight\":\"700\",\"letter-spacing\":\"0.1px\"}",
    "h5, .h5": "{\"font-size\":\"21px\",\"line-height\":\"26px\",\"font-weight\":\"700\",\"letter-spacing\":\"0.1px\"}",
    "h6, .h6": "{\"font-size\":\"20px\",\"line-height\":\"25px\",\"font-weight\":\"700\",\"letter-spacing\":\"0.1px\"}",
    "footer_main_bg": "rgba(255,255,255,1)",
    "footer_main_text_color": "rgba(102,102,102,1)",
    "footer_main_links_color": "rgba(102,102,102,1)",
    "footer_main_links_action_color": "rgba(32,44,211,1)",
    "enable_footer_maiclhimp": true,
    "prefooter_position": "pre",
    "prefooter_icon": "",
    "prefooter_title": "Skype",
    "prefooter_subtitle": "E-lab_shop_contact",
    "prefooter_icon_2": "",
    "prefooter_title_2": "Info line",
    "prefooter_subtitle_2": "878 - 3853 - 9576",
    "prefooter_icon_3": "",
    "prefooter_title_3": "Email",
    "prefooter_subtitle_3": "shopelab@gmail.com",
    "widget_area_1_width": "2",
    "widget_area_2_width": "2",
    "widget_area_3_width": "3",
    "widget_area_4_width": "3",
    "widget_area_5_width": "2",
    "widget_area_6_width": "2",
    "widget_area_1_width_sm": "4",
    "widget_area_2_width_sm": "4",
    "widget_area_3_width_sm": "4",
    "widget_area_4_width_sm": "6",
    "widget_area_5_width_sm": "6",
    "widget_area_6_width_sm": "3",
    "copyright": "<a href=\"https:\/\/stylemixthemes.com\/elab\/\">eLab<\/a> - Multi Vendor Marketplace WordPress Theme",
    "copyright_image": 3082,
    "socials": "",
    "mc_list_id": "fe10092ef4",
    "mc_api_key": "0e2389b0d7d1390d912155474f4b8e8e-us9",
    "404_content_bg_img": "",
    "categ_head_bg_img": "",
    "tag_head_bg_img": "",
    "search_head_bg_img": "",
    "blog_style": "",
    "blog_banner": "",
    "shop_banner": "1940",
    "product_card_style": "style_2",
    "shop_product_view": "grid",
    "shop_page_style": "default",
    "single_product_style": "style_1",
    "shop_per_page": "16"
}